{
    "ServiceMemoryUtilization": {
        "enabled": true,
        "ActionsEnabled": true,
        "AlarmActions": [
            "{{SnsTopic}}"
        ],
        "ComparisonOperator": "GreaterThanOrEqualToThreshold",
        "EvaluationPeriods": 4,
        "OKActions": [
            "{{SnsTopic}}"
        ],
        "Period": 300,
        "Statistic": "Average",
        "Threshold": 90,
        "TreatMissingData": "notBreaching"
    },
    "ServiceCPUUtilization": {
        "enabled": true,
        "ActionsEnabled": true,
        "AlarmActions": [
            "{{SnsTopic}}"
        ],
        "ComparisonOperator": "GreaterThanOrEqualToThreshold",
        "EvaluationPeriods": 4,
        "OKActions": [
            "{{SnsTopic}}"
        ],
        "Period": 300,
        "Statistic": "Average",
        "Threshold": 90,
        "TreatMissingData": "notBreaching"
    }
}